\relax 
\providecommand\babel@aux[2]{}
\@nameuse{bbl@beforestart}
\catcode `"\active 
\providecommand\hyper@newdestlabel[2]{}
\providecommand*\HyPL@Entry[1]{}
\HyPL@Entry{0<</S/D>>}
\babel@aux{english}{}
\newlabel{addressing}{{}{1}{Line Addressing}{section*.1}{}}
\@writefile{lot}{\contentsline {table}{\numberline {1}{\ignorespaces All the addressing symbols used by ex}}{1}{table.1}\protected@file@percent }
